Mux_8_1/Mux_8_1WithSC/Mux_8_1.vcd
$date
     Apr 24, 2015       15:08:06
$end

$version
 SystemC 2.3.1-Accellera --- Mar 19 2015 21:04:40
$end

$timescale
     1 ps
$end

$scope module SystemC $end
$var wire    1  aaaaa  CLK       $end
$var wire    1  aaaab  dataOut       $end
$var wire    3  aaaac  selIn [2:0]  $end
$var wire    8  aaaad  dataIn [7:0]  $end
$var wire    1  aaaae  en_n       $end
$upscope $end
$enddefinitions  $end

$comment
All initial values are dumped below at time 0 sec = 0 timescale units.
$end

$dumpvars
1aaaaa
0aaaab
b0 aaaac
b0 aaaad
0aaaae
$end

#10000
0aaaaa

#20000
1aaaaa
b11001000 aaaad

#30000
0aaaaa

#40000
1aaaaa
b1 aaaac

#50000
0aaaaa

#60000
1aaaaa
b10 aaaac

#70000
0aaaaa

#80000
1aaaaa
1aaaab
b11 aaaac

#90000
0aaaaa

#100000
1aaaaa
0aaaab
b100 aaaac

#110000
0aaaaa

#120000
1aaaaa
b101 aaaac

#130000
0aaaaa

#140000
1aaaaa
1aaaab
b110 aaaac

#150000
0aaaaa

#160000
1aaaaa
b111 aaaac

